Trajectory Analysis • ggopenair
…
Traj Clustering

Unlike trajCluster(), traj_cluster() only
returns clustered data by default.

traj_cluster(traj_red)
#> $traj
#> # A tibble: 5,432 × 21
#>    date                receptor  year month   day  hour hour.inc   lat    lon
#>    <dttm>                 <int> <dbl> <int> <int> <int>    <dbl> <dbl>  <dbl>
#>  1 2010-04-15 00:00:00        1  2010     4    11     0      -96  56.4 -10.3 
#>  2 2010-04-15 00:00:00        1  2010     4    11     1      -95  56.6 -10.1 
#>  3 2010-04-15 00:00:00        1  2010     4    11     2      -94  56.8  -9.86
#>  4 2010-04-15 00:00:00        1  2010     4    11     3      -93  57.1  -9.65
#>  5 2010-04-15 00:00:00        1  2010     4    11     4      -92  57.3  -9.44
#>  6 2010-04-15 00:00:00        1  2010     4    11     5      -91  57.5  -9.22
#>  7 2010-04-15 00:00:00        1  2010     4    11     6      -90  57.7  -9.01
#>  8 2010-04-15 00:00:00        1  2010     4    11     7      -89  57.9  -8.79
#>  9 2010-04-15 00:00:00        1  2010     4    11     8      -88  58.1  -8.58
#> 10 2010-04-15 00:00:00        1  2010     4    11     9      -87  58.2  -8.37
#> # … with 5,422 more rows, and 12 more variables: height <dbl>, pressure <dbl>,
#> #   date2 <dttm>, nox <dbl>, no2 <dbl>, o3 <dbl>, pm2.5 <dbl>, pm10 <dbl>,
#> #   traj_len <int>, default <fct>, len <int>, cluster <chr>
#> 
#> $results
#> # A tibble: 485 × 6
#>    cluster hour.inc default                        lat   lon date               
#>    <chr>      <dbl> <fct>                        <dbl> <dbl> <dttm>             
#>  1 C1           -96 15 April 2010 to 21 April 2…  60.8 -32.5 2010-04-16 18:16:21
#>  2 C1           -95 15 April 2010 to 21 April 2…  61.2 -31.7 2010-04-16 18:16:21
#>  3 C1           -94 15 April 2010 to 21 April 2…  61.5 -30.9 2010-04-16 18:16:21
#>  4 C1           -93 15 April 2010 to 21 April 2…  61.8 -30.1 2010-04-16 18:16:21
#>  5 C1           -92 15 April 2010 to 21 April 2…  62.1 -29.2 2010-04-16 18:16:21
#>  6 C1           -91 15 April 2010 to 21 April 2…  62.4 -28.3 2010-04-16 18:16:21
#>  7 C1           -90 15 April 2010 to 21 April 2…  62.7 -27.4 2010-04-16 18:16:21
#>  8 C1           -89 15 April 2010 to 21 April 2…  62.9 -26.4 2010-04-16 18:16:21
#>  9 C1           -88 15 April 2010 to 21 April 2…  63.2 -25.5 2010-04-16 18:16:21
#> 10 C1           -87 15 April 2010 to 21 April 2…  63.4 -24.5 2010-04-16 18:16:21
#> # … with 475 more rows
…
